{
  "project_info": {
    "project_number": "66238336901",
    "firebase_url": "https://checkassitance.firebaseio.com",
    "project_id": "checkassitance",
    "storage_bucket": "checkassitance.appspot.com"
  },
  "client": [
    {
      "client_info": {
        "mobilesdk_app_id": "1:66238336901:android:1611a706644601c3",
        "android_client_info": {
          "package_name": "com.example.checkassitance"
        }
      },
      "oauth_client": [
        {
          "client_id": "66238336901-6k7hs32p277heipl5vg6mereh4prdhft.apps.googleusercontent.com",
          "client_type": 1,
          "android_info": {
            "package_name": "com.example.checkassitance",
            "certificate_hash": "d3d21242933e88d70d7770d5267844289bb9d7ec"
          }
        },
        {
          "client_id": "66238336901-pp1mecirok1cm3clb41eejl5emkjksr7.apps.googleusercontent.com",
          "client_type": 3
        }
      ],
      "api_key": [
        {
          "current_key": "AIzaSyCAq2Ge-cnoABHDFhY05fV_X0kJ3KdJ_NQ"
        }
      ],
      "services": {
        "appinvite_service": {
          "other_platform_oauth_client": [
            {
              "client_id": "66238336901-pp1mecirok1cm3clb41eejl5emkjksr7.apps.googleusercontent.com",
              "client_type": 3
            }
          ]
        }
      }
    }
  ],
  "configuration_version": "1"
}